	<robot name="jarvis">
	 	<link name="base_link">
			<visual>
			    <origin xyz="0 0 0.0825" rpy="0 0 0"/>
				<geometry>
					<!-- <box size="0.40 0.40 0.23"/> -->
					<box size="0.42 0.50 0.165"/>
				</geometry>
				<material name="Cyan1">
		       		<color rgba="0 0.9 0.9 1.0"/>
		     	</material>
			</visual>	
		</link>

	  	<link name="torso_link">
			<visual>
				<origin xyz="0 0 0.5525" rpy="0 0 0"/>
				<geometry>
					<cylinder radius="0.037" length="1.105"/>
				</geometry>
		     	<material name="Yellow2">
					<color rgba="0.8 0.8 0 1.0"/>
				</material>
		   </visual>
		</link>




		<link name="right_shoulder_forward_link">
			<visual>
				<origin xyz="0 0 0.015" rpy="0 0 0"/>
				<geometry>
					<box size="0.03 0.153 0.03"/>
				</geometry>
		     	<material name="Blue1">
					<color rgba="0 0 0.9 1.0"/>
				</material>
		   </visual>
		</link>
		<link name="right_shoulder_up_link">
			<visual>
				<origin xyz="0 0 0.0275" rpy="0 0 0"/>
				<geometry>
					<box size="0.03 0.03 0.055"/>
				</geometry>
		     	<material name="Blue2">
					<color rgba="0 0 0.7 1.0"/>
				</material>
		   </visual>
		</link>
		<link name="right_upper_arm_link">
			<visual>
				<origin xyz="0 0 0.02" rpy="0 0 0"/>
				<geometry>
					<cylinder radius="0.031" length="0.04"/>
				</geometry>
		     	<material name="Grey1">
					<color rgba="0.9 0.9 0.9 1.0"/>
				</material>
		   </visual>
		</link>
		<link name="right_lower_arm_link">
			<visual>
				<origin xyz="0 0 -0.08625" rpy="0 0 0"/>
				<geometry>
					<cylinder radius="0.031" length="0.1725"/>
				</geometry>
		     	<material name="Grey1">
					<color rgba="0.9 0.9 0.9 1.0"/>
				</material>
		   </visual>
		</link>
		<link name="right_lower_arm2_link">
			<visual>
				<origin xyz="0 0 -0.085" rpy="0 0 0"/>
				<geometry>
					<cylinder radius="0.031" length="0.17"/>
				</geometry>
		     	<material name="Grey1">
					<color rgba="0.9 0.9 0.9 1.0"/>
				</material>
		   </visual>
		</link>

		<link name="right_hand_link">
			<visual>
				<origin xyz="0 0 -0.055" rpy="0 0 0"/>
				<geometry>
					<cylinder radius="0.031" length="0.11"/>
				</geometry>
		     	<material name="Grey1">
					<color rgba="0.7 0.7 0.7 1.0"/>
				</material>
		   </visual>
		</link>

		<link name="right_hand_dummy1">
			<visual>
				<origin xyz="0 0 -0.0005" rpy="0 0 0"/>
				<geometry>
					<box size="0.0001 0.0001 0.001"/>
				</geometry>
		     	<material name="Grey1">
					<color rgba="0.7 0.7 0.7 1.0"/>
				</material>
		   </visual>
		</link>
		<link name="right_hand_dummy2">
			<visual>
				<origin xyz="0 0 -0.0005" rpy="0 0 0"/>
				<geometry>
					<box size="0.0001 0.0001 0.001"/>
				</geometry>
		     	<material name="Grey1">
					<color rgba="0.7 0.7 0.7 1.0"/>
				</material>
		   </visual>
		</link>
		<link name="right_gripper_l_link">
			<visual>
				<origin xyz="0 0.005 -0.08" rpy="-0.3 0 0"/>
				<geometry>
					<box size="0.05 0.03 0.16"/>
				</geometry>
		     	<material name="Grey1">
					<color rgba="0.7 0.7 0.7 1.0"/>
				</material>
		   </visual>
		</link>

		<link name="right_gripper_r_link">
			<visual>
				<origin xyz="0 -0.005 -0.08" rpy="0.3 0 0"/>
				<geometry>
					<box size="0.05 0.03 0.16"/>
				</geometry>
		     	<material name="Grey1">
					<color rgba="0.7 0.7 0.7 1.0"/>
				</material>
		   </visual>
		</link>
		








		<link name="left_shoulder_forward_link">
			<visual>
				<origin xyz="0 0 0.015" rpy="0 0 0"/>
				<geometry>
					<box size="0.03 0.153 0.03"/>
				</geometry>
		     	<material name="Blue1">
					<color rgba="0 0 0.9 1.0"/>
				</material>
		   </visual>
		</link>
		<link name="left_shoulder_up_link">
			<visual>
				<origin xyz="0 0 0.0275" rpy="0 0 0"/>
				<geometry>
					<box size="0.03 0.03 0.055"/>
				</geometry>
		     	<material name="Blue2">
					<color rgba="0 0 0.7 1.0"/>
				</material>
		   </visual>
		</link>
		<link name="left_upper_arm_link">
			<visual>
				<origin xyz="0 0 0.02" rpy="0 0 0"/>
				<geometry>
					<cylinder radius="0.031" length="0.04"/>
				</geometry>
		     	<material name="Grey1">
					<color rgba="0.9 0.9 0.9 1.0"/>
				</material>
		   </visual>
		</link>
		<link name="left_lower_arm_link">
			<visual>
				<origin xyz="0 0 -0.08625" rpy="0 0 0"/>
				<geometry>
					<cylinder radius="0.031" length="0.1725"/>
				</geometry>
		     	<material name="Grey1">
					<color rgba="0.9 0.9 0.9 1.0"/>
				</material>
		   </visual>
		</link>
		<link name="left_lower_arm2_link">
			<visual>
				<origin xyz="0 0 -0.085" rpy="0 0 0"/>
				<geometry>
					<cylinder radius="0.031" length="0.17"/>
				</geometry>
		     	<material name="Grey1">
					<color rgba="0.9 0.9 0.9 1.0"/>
				</material>
		   </visual>
		</link>

		<link name="left_hand_link">
			<visual>
				<origin xyz="0 0 -0.055" rpy="0 0 0"/>
				<geometry>
					<cylinder radius="0.031" length="0.11"/>
				</geometry>
		     	<material name="Grey1">
					<color rgba="0.7 0.7 0.7 1.0"/>
				</material>
		   </visual>
		</link>

		<link name="left_hand_dummy1">
			<visual>
				<origin xyz="0 0 -0.0005" rpy="0 0 0"/>
				<geometry>
					<box size="0.0001 0.0001 0.001"/>
				</geometry>
		     	<material name="Grey1">
					<color rgba="0.7 0.7 0.7 1.0"/>
				</material>
		   </visual>
		</link>
		<link name="left_hand_dummy2">
			<visual>
				<origin xyz="0 0 -0.0005" rpy="0 0 0"/>
				<geometry>
					<box size="0.0001 0.0001 0.001"/>
				</geometry>
		     	<material name="Grey1">
					<color rgba="0.7 0.7 0.7 1.0"/>
				</material>
		   </visual>
		</link>
		<link name="left_gripper_l_link">
			<visual>
				<origin xyz="0 0.005 -0.08" rpy="-0.3 0 0"/>
				<geometry>
					<box size="0.05 0.03 0.16"/>
				</geometry>
		     	<material name="Grey1">
					<color rgba="0.7 0.7 0.7 1.0"/>
				</material>
		   </visual>
		</link>

		<link name="left_gripper_r_link">
			<visual>
				<origin xyz="0 -0.005 -0.08" rpy="0.3 0 0"/>
				<geometry>
					<box size="0.05 0.03 0.16"/>
				</geometry>
		     	<material name="Grey1">
					<color rgba="0.7 0.7 0.7 1.0"/>
				</material>
		   </visual>
		</link>
















		<joint name="cpu_joint" type="fixed">
			<parent link="base_link"/>
			<child link="torso_link"/>
			<origin xyz="0.08 0 0.165" rpy="0 0 0"/>
		</joint>


		<joint name="right_shoulder_forward_joint" type="fixed">
	    	<parent link="base_link"/>
	    	<child link="right_shoulder_forward_link"/>
	    	<origin xyz="0.11 -0.0765 0.965" rpy="0 0 0"/>
		</joint>

		<joint name="right_shoulder_up_joint" type="fixed">
	    	<parent link="base_link"/>
	    	<child link="right_shoulder_up_link"/>
	    	<origin xyz="0.11 -0.153 0.91" rpy="0 0 0"/>
		</joint>
		<joint name="right_upper_arm_joint" type="revolute">
	    	<parent link="right_shoulder_up_link"/>
	    	<child link="right_upper_arm_link"/>
	    	<origin xyz="0 0 -0.04" rpy="0 0 0"/>
	    	<limit lower="-1.57" upper="1.57" effort="10" velocity="3"/>
	        <axis xyz="0 0 1"/>
		</joint>
	 	<joint name="right_elbow_joint" type="revolute">
	    	<parent link="right_upper_arm_link"/>
	    	<child link="right_lower_arm_link"/>
	    	<origin xyz="0 0 0" rpy="0 0 0"/>
	    	
	       	<limit lower="-1.57" upper="1.57" effort="10" velocity="3"/>
	        <axis xyz="0 1 0"/>
		</joint>	
	 	<joint name="right_wrist_joint" type="revolute">
	    	<parent link="right_lower_arm_link"/>
	    	<child link="right_lower_arm2_link"/>
	    	<origin xyz="-0.000 0 -0.1725" rpy="0 0 0"/>
	    	
	       	<limit lower="-1.57" upper="1.57" effort="10" velocity="3"/>
	        <axis xyz="0 1 0"/>
		</joint>

	 	<joint name="right_wrist_joint2" type="revolute">
	    	<parent link="right_lower_arm2_link"/>
	    	<child link="right_hand_link"/>
	    	<origin xyz="0 0 -0.17" rpy="0 0 0"/>
	       	<limit lower="-1.57" upper="1.57" effort="10" velocity="3"/>
	        <axis xyz="0 1 0"/>
		</joint>
		<joint name="right_hand_dummy1" type="revolute">
	    	<parent link="right_hand_link"/>
	    	<child link="right_hand_dummy1"/>
	    	<origin xyz="0 0 -0.11" rpy="0 0 0"/>
	        <axis xyz="1 0 0"/>
	        <limit lower="-1.57" upper="1.57" effort="10" velocity="3"/>
		</joint>


		<joint name="right_hand_dummy2" type="revolute">
	    	<parent link="right_hand_dummy1"/>
	    	<child link="right_hand_dummy2"/>
	    	<origin xyz="0 0 -0.001" rpy="0 0 0"/>
	        <axis xyz="0 1 0"/>
	        <limit lower="-1.57" upper="1.57" effort="10" velocity="3"/>
		</joint>


		<joint name="right_grip_l" type="revolute">
	    	<parent link="right_hand_link"/>
	    	<child link="right_gripper_l_link"/>
	    	<origin xyz="0 0.035 -0.11" rpy="0 0 0"/>
	        <axis xyz="1 0 0"/>
	        <limit lower="0" upper="1.0" effort="10" velocity="10"/>
		</joint>
		<joint name="right_grip_r" type="revolute">
	    	<parent link="right_hand_link"/>
	    	<child link="right_gripper_r_link"/>
	    	<origin xyz="0 -0.035 -0.11" rpy="0 0 0"/>
	        <axis xyz="1 0 0"/>
	        <limit lower="-1.0" upper="0" effort="10" velocity="10"/>
		</joint>





		<joint name="left_shoulder_forward_joint" type="fixed">
	    	<parent link="base_link"/>
	    	<child link="left_shoulder_forward_link"/>
	    	<origin xyz="0.11 0.0765 0.965" rpy="0 0 0"/>
		</joint>

		<joint name="left_shoulder_up_joint" type="fixed">
	    	<parent link="base_link"/>
	    	<child link="left_shoulder_up_link"/>
	    	<origin xyz="0.11 0.153 0.91" rpy="0 0 0"/>
		</joint>
		<joint name="left_upper_arm_joint" type="revolute">
	    	<parent link="left_shoulder_up_link"/>
	    	<child link="left_upper_arm_link"/>
	    	<origin xyz="0 0 -0.04" rpy="0 0 0"/>
	    	<limit lower="-1.57" upper="1.57" effort="10" velocity="3"/>
	        <axis xyz="0 0 1"/>
		</joint>
	 	<joint name="left_elbow_joint" type="revolute">
	    	<parent link="left_upper_arm_link"/>
	    	<child link="left_lower_arm_link"/>
	    	<origin xyz="0 0 0" rpy="0 0 0"/>
	    	
	       	<limit lower="-1.57" upper="1.57" effort="10" velocity="3"/>
	        <axis xyz="0 1 0"/>
		</joint>	
	 	<joint name="left_wrist_joint" type="revolute">
	    	<parent link="left_lower_arm_link"/>
	    	<child link="left_lower_arm2_link"/>
	    	<origin xyz="-0.000 0 -0.1725" rpy="0 0 0"/>
	    	
	       	<limit lower="-1.57" upper="1.57" effort="10" velocity="3"/>
	        <axis xyz="0 1 0"/>
		</joint>

	 	<joint name="left_wrist_joint2" type="revolute">
	    	<parent link="left_lower_arm2_link"/>
	    	<child link="left_hand_link"/>
	    	<origin xyz="0 0 -0.17" rpy="0 0 0"/>
	       	<limit lower="-1.57" upper="1.57" effort="10" velocity="3"/>
	        <axis xyz="0 1 0"/>
		</joint>
		<joint name="left_hand_dummy1" type="revolute">
	    	<parent link="left_hand_link"/>
	    	<child link="left_hand_dummy1"/>
	    	<origin xyz="0 0 -0.11" rpy="0 0 0"/>
	        <axis xyz="1 0 0"/>
	        <limit lower="-1.57" upper="1.57" effort="10" velocity="3"/>
		</joint>


		<joint name="left_hand_dummy2" type="revolute">
	    	<parent link="left_hand_dummy1"/>
	    	<child link="left_hand_dummy2"/>
	    	<origin xyz="0 0 -0.001" rpy="0 0 0"/>
	        <axis xyz="0 1 0"/>
	        <limit lower="-1.57" upper="1.57" effort="10" velocity="3"/>
		</joint>


		<joint name="left_grip_l" type="revolute">
	    	<parent link="left_hand_link"/>
	    	<child link="left_gripper_l_link"/>
	    	<origin xyz="0 0.035 -0.11" rpy="0 0 0"/>
	        <axis xyz="1 0 0"/>
	        <limit lower="0" upper="1.0" effort="10" velocity="10"/>
		</joint>
		<joint name="left_grip_r" type="revolute">
	    	<parent link="left_hand_link"/>
	    	<child link="left_gripper_r_link"/>
	    	<origin xyz="0 -0.035 -0.11" rpy="0 0 0"/>
	        <axis xyz="1 0 0"/>
	        <limit lower="-1.0" upper="0" effort="10" velocity="10"/>
		</joint>






  <material name="orange">
    <color rgba="1.0 0.5 0.2 1" />
  </material>
  <material name="gray">
    <color rgba="0.2 0.2 0.2 1" />
  </material>

  <link name="fcu">
    <visual>
      <origin xyz="0 0 0" />
      <geometry>
        <box size="0.06 0.04 0.02" />
      </geometry>
      <material name="orange" />
    </visual>
  </link>

  <link name="laser">
    <visual>
      <origin xyz="0 0 0" />
      <geometry>
        <cylinder length="0.05" radius="0.03" />
      </geometry>
      <material name="gray" />
    </visual>
  </link>

<!--   <link name="camera_link">
    <visual>
      <origin xyz="0 0 0" />
      <geometry>
        <box size="0.07 0.28 0.04" />
      </geometry>
      <material name="blue" />
    </visual>
  </link> -->

  <!-- <link name="base_link" /> -->

  <joint name="fcu_joint" type="fixed">
    <parent link="base_link" />
    <child link="fcu" />
    <origin xyz="0 0 0" />
  </joint>

  <joint name="laser_joint" type="fixed">
    <parent link="base_link" />
    <child link="laser" />
    <origin xyz="0.12 0.0 0.25" />
  </joint>


<!--   <joint name="camera_joint" type="fixed">
    <parent link="base_link" />
    <child link="camera_link" />
    <origin xyz="-0.26 -0.190 1.14" rpy="0 0 0" />
  </joint> -->

	</robot>